{
  "base": "EUR",
  "date": "2018-09-06",
  "rates": {
    "AUD": 1.6228,
    "BGN": 1.9635,
    "BRL": 4.8107,
    "CAD": 1.5399,
    "CHF": 1.132,
    "CNY": 7.9765,
    "CZK": 25.817,
    "DKK": 7.4861,
    "GBP": 0.90179,
    "HKD": 9.1685,
    "HRK": 7.4635,
    "HUF": 327.78,
    "IDR": 17392.0,
    "ILS": 4.1871,
    "INR": 84.048,
    "ISK": 128.3,
    "JPY": 130.06,
    "KRW": 1309.9,
    "MXN": 22.454,
    "MYR": 4.831,
    "NOK": 9.8146,
    "NZD": 1.7703,
    "PHP": 62.839,
    "PLN": 4.3354,
    "RON": 4.6568,
    "RUB": 79.889,
    "SEK": 10.633,
    "SGD": 1.6063,
    "THB": 38.281,
    "TRY": 7.6583,
    "USD": 1.168,
    "ZAR": 17.894
  }
}
